\relax 
\@writefile{toc}{\contentsline {section}{\numberline {0.1}Grid Class}{1}}
\@writefile{toc}{\contentsline {section}{\numberline {0.2}Node Class}{1}}
\@writefile{toc}{\contentsline {section}{\numberline {0.3}JuncDirection struct}{1}}
\@writefile{toc}{\contentsline {section}{\numberline {0.4}Information the Robot needs}{1}}
\@writefile{toc}{\contentsline {section}{\numberline {0.5}Initial Sonar Sweep}{1}}
\@writefile{toc}{\contentsline {section}{\numberline {0.6}Heuristic Equation}{2}}
\@writefile{toc}{\contentsline {section}{\numberline {0.7}Junction Behaviour Improvements}{2}}
\@writefile{toc}{\contentsline {section}{\numberline {0.8}Final Remarks}{3}}
